%YAML 1.1
%TAG !u! tag:unity3d.com,2011:
--- !u!114 &11400000
MonoBehaviour:
  m_ObjectHideFlags: 0
  m_CorrespondingSourceObject: {fileID: 0}
  m_PrefabInstance: {fileID: 0}
  m_PrefabAsset: {fileID: 0}
  m_GameObject: {fileID: 0}
  m_Enabled: 1
  m_EditorHideFlags: 0
  m_Script: {fileID: 11500000, guid: 192a5df8670f00d4381e1fe6b476f531, type: 3}
  m_Name: Pig_Burn-Namprilk
  m_EditorClassIdentifier: 
  input: {fileID: 11400000, guid: 25a24d5c72a69cf42b801b59f6297c8a, type: 2}
  output: {fileID: 11400000, guid: 3fcc71a7e03190e48bccafa8e34ba4fa, type: 2}
  burningTimeMax: 4
