%YAML 1.1
%TAG !u! tag:unity3d.com,2011:
--- !u!114 &11400000
MonoBehaviour:
  m_ObjectHideFlags: 0
  m_CorrespondingSourceObject: {fileID: 0}
  m_PrefabInstance: {fileID: 0}
  m_PrefabAsset: {fileID: 0}
  m_GameObject: {fileID: 0}
  m_Enabled: 1
  m_EditorHideFlags: 0
  m_Script: {fileID: 11500000, guid: 6ea120a396da1874bb9b9560ad53b762, type: 3}
  m_Name: PigFried-Hunalay
  m_EditorClassIdentifier: 
  prefeb: {fileID: 4040341869975371144, guid: 33f21966cf9d7814c91067250aae2a90, type: 3}
  sprite: {fileID: 21300000, guid: 31767c4cd8cd211488d7a16012629657, type: 3}
  ObjectName: Streaky pork
  spritecook: {fileID: 21300000, guid: 15c2495f0eda7ff44854599cf66aef44, type: 3}
  imageMenu: {fileID: 21300000, guid: 6ab431796c287444aa0fe70d81598130, type: 3}
