%YAML 1.1
%TAG !u! tag:unity3d.com,2011:
--- !u!114 &11400000
MonoBehaviour:
  m_ObjectHideFlags: 0
  m_CorrespondingSourceObject: {fileID: 0}
  m_PrefabInstance: {fileID: 0}
  m_PrefabAsset: {fileID: 0}
  m_GameObject: {fileID: 0}
  m_Enabled: 1
  m_EditorHideFlags: 0
  m_Script: {fileID: 11500000, guid: 530e556d4407947dcae7102ff497587d, type: 3}
  m_Name: SimpleWayPointsAIFSM-PartyVS
  m_EditorClassIdentifier: 
  _data:
    _json: '{"graph":{"title":"SimpleWayPointsAIFSM-PartyVS","summary":null,"pan":{"x":16.4915,"y":-131.4388},"zoom":1.0,"elements":[{"nest":{"source":"Embed","macro":null,"embed":{"variables":{"Kind":"Flow","collection":{"$content":[],"$version":"A"},"$version":"A"},"controlInputDefinitions":[],"controlOutputDefinitions":[],"valueInputDefinitions":[],"valueOutputDefinitions":[],"title":"Start","summary":null,"pan":{"x":54.0,"y":-13.0},"zoom":1.0,"elements":[{"coroutine":false,"defaultValues":{},"position":{"x":-205.0,"y":-215.0},"guid":"b937b4a0-b339-4ea5-9fa1-7d8fffc0ddd4","$version":"A","$type":"Unity.VisualScripting.OnEnterState","$id":"13"},{"coroutine":false,"defaultValues":{},"position":{"x":-214.0,"y":-40.0},"guid":"5ded9857-753d-47fe-bfa5-44898d1b9197","$version":"A","$type":"Unity.VisualScripting.Update"},{"coroutine":false,"defaultValues":{},"position":{"x":-205.0,"y":145.0},"guid":"69bd9f1c-b5cb-407c-9b12-2bbf9f16c312","$version":"A","$type":"Unity.VisualScripting.OnExitState"},{"argumentCount":0,"defaultValues":{"name":{"$content":"GotoIdleState","$type":"System.String"},"target":null},"position":{"x":86.0,"y":-234.0},"guid":"527bc787-469c-4c9d-ba4d-1f5905d8e2cb","$version":"A","$type":"Unity.VisualScripting.TriggerCustomEvent","$id":"19"},{"sourceUnit":{"$ref":"13"},"sourceKey":"trigger","destinationUnit":{"$ref":"19"},"destinationKey":"enter","guid":"c8cc38dd-fe0d-4315-b32a-8e8fc2b87cc8","$type":"Unity.VisualScripting.ControlConnection"}],"$version":"A"}},"isStart":true,"position":{"x":-304.0,"y":-55.0},"width":170.0,"guid":"49853a15-1368-4f43-b7d5-13b94d33a203","$version":"A","$type":"Unity.VisualScripting.FlowState","$id":"3"},{"nest":{"source":"Embed","macro":null,"embed":{"variables":{"Kind":"Flow","collection":{"$content":[{"name":"m_IdleTime","value":{"$content":0.0,"$type":"System.Single"},"typeHandle":{"Identification":"System.Single,
      mscorlib, Version=4.0.0.0, Culture=neutral, PublicKeyToken=b77a5c561934e089","$version":"A"},"$version":"A"}],"$version":"A"},"$version":"A"},"controlInputDefinitions":[],"controlOutputDefinitions":[],"valueInputDefinitions":[],"valueOutputDefinitions":[],"title":"Idle","summary":null,"pan":{"x":94.0,"y":7.177261},"zoom":1.0,"elements":[{"coroutine":false,"defaultValues":{},"position":{"x":-222.0,"y":-215.0},"guid":"1c358748-e979-4f25-b4c8-2cc89eec845a","$version":"A","$type":"Unity.VisualScripting.OnEnterState","$id":"33"},{"coroutine":false,"defaultValues":{},"position":{"x":-214.0,"y":-54.0},"guid":"f7f10426-0669-4684-bf95-b4e995c9c40a","$version":"A","$type":"Unity.VisualScripting.Update","$id":"35"},{"coroutine":false,"defaultValues":{},"position":{"x":-213.0,"y":121.0},"guid":"85f4599d-109f-4636-8f06-9cacd7736a9a","$version":"A","$type":"Unity.VisualScripting.OnExitState","$id":"37"},{"chainable":false,"parameterNames":[],"member":{"name":"EnterState","parameterTypes":[],"targetType":"IdleState","targetTypeName":"IdleState","$version":"A"},"defaultValues":{"target":null},"position":{"x":61.0,"y":-225.0},"guid":"03dd9d58-ba69-4f6a-972b-cb744277e82a","$version":"A","$type":"Unity.VisualScripting.InvokeMember","$id":"39"},{"chainable":false,"parameterNames":[],"member":{"name":"UpdateState","parameterTypes":[],"targetType":"IdleState","targetTypeName":"IdleState","$version":"A"},"defaultValues":{"target":null},"position":{"x":73.0,"y":-62.0},"guid":"033cfe92-50da-4426-a997-cff9d9d99a8d","$version":"A","$type":"Unity.VisualScripting.InvokeMember","$id":"43"},{"chainable":false,"parameterNames":[],"member":{"name":"ExitState","parameterTypes":[],"targetType":"IdleState","targetTypeName":"IdleState","$version":"A"},"defaultValues":{"target":null},"position":{"x":60.0,"y":113.0},"guid":"786d231d-ad2c-4fa1-a2fd-e572dee25916","$version":"A","$type":"Unity.VisualScripting.InvokeMember","$id":"47"},{"sourceUnit":{"$ref":"33"},"sourceKey":"trigger","destinationUnit":{"$ref":"39"},"destinationKey":"enter","guid":"98894a26-87b2-4769-b3f0-e17bb409d50f","$type":"Unity.VisualScripting.ControlConnection"},{"sourceUnit":{"$ref":"37"},"sourceKey":"trigger","destinationUnit":{"$ref":"47"},"destinationKey":"enter","guid":"5bb6dd7c-3d1b-417a-a8ce-83b85936d20c","$type":"Unity.VisualScripting.ControlConnection"},{"sourceUnit":{"$ref":"35"},"sourceKey":"trigger","destinationUnit":{"$ref":"43"},"destinationKey":"enter","guid":"be884876-6921-472f-9f71-b609b310a66a","$type":"Unity.VisualScripting.ControlConnection"}],"$version":"A"}},"isStart":false,"position":{"x":-108.0,"y":-340.0},"width":170.0,"guid":"f67a2d0e-a5ac-44ef-9fa7-076878a34fa5","$version":"A","$type":"Unity.VisualScripting.FlowState","$id":"22"},{"nest":{"source":"Embed","macro":null,"embed":{"variables":{"Kind":"Flow","collection":{"$content":[],"$version":"A"},"$version":"A"},"controlInputDefinitions":[],"controlOutputDefinitions":[],"valueInputDefinitions":[],"valueOutputDefinitions":[],"title":"WaypointReaching","summary":null,"pan":{"x":127.0,"y":76.0},"zoom":1.0,"elements":[{"coroutine":false,"defaultValues":{},"position":{"x":-205.0,"y":-215.0},"guid":"2e05d361-9b60-4653-a88d-23c5a0da6e52","$version":"A","$type":"Unity.VisualScripting.OnEnterState","$id":"64"},{"coroutine":false,"defaultValues":{},"position":{"x":-187.0,"y":-35.0},"guid":"8b49e0cb-8a2a-4100-9cc6-b77ed7856ea1","$version":"A","$type":"Unity.VisualScripting.Update","$id":"66"},{"coroutine":false,"defaultValues":{},"position":{"x":-191.0,"y":146.0},"guid":"5ee164f7-f783-4745-b71f-10f40277d996","$version":"A","$type":"Unity.VisualScripting.OnExitState","$id":"68"},{"chainable":false,"parameterNames":[],"member":{"name":"EnterState","parameterTypes":[],"targetType":"WaypointReachingState","targetTypeName":"WaypointReachingState","$version":"A"},"defaultValues":{"target":null},"position":{"x":41.0,"y":-213.0},"guid":"50b82d1c-9195-4bd7-9fea-5695a1c3bb2a","$version":"A","$type":"Unity.VisualScripting.InvokeMember","$id":"70"},{"chainable":false,"parameterNames":[],"member":{"name":"ExitState","parameterTypes":[],"targetType":"WaypointReachingState","targetTypeName":"WaypointReachingState","$version":"A"},"defaultValues":{"target":null},"position":{"x":46.0,"y":130.0},"guid":"8f902d75-dbbd-4e13-bf88-dee52ae23edd","$version":"A","$type":"Unity.VisualScripting.InvokeMember","$id":"74"},{"chainable":false,"parameterNames":[],"member":{"name":"UpdateState","parameterTypes":[],"targetType":"WaypointReachingState","targetTypeName":"WaypointReachingState","$version":"A"},"defaultValues":{"target":null},"position":{"x":47.0,"y":-33.0},"guid":"83dcb1ef-3ab3-4126-8014-8745f8c76991","$version":"A","$type":"Unity.VisualScripting.InvokeMember","$id":"78"},{"sourceUnit":{"$ref":"66"},"sourceKey":"trigger","destinationUnit":{"$ref":"78"},"destinationKey":"enter","guid":"2280f656-2f06-417b-90fd-d22e7113c148","$type":"Unity.VisualScripting.ControlConnection"},{"sourceUnit":{"$ref":"64"},"sourceKey":"trigger","destinationUnit":{"$ref":"70"},"destinationKey":"enter","guid":"29c38f21-f94a-47d2-bd8d-048541c18923","$type":"Unity.VisualScripting.ControlConnection"},{"sourceUnit":{"$ref":"68"},"sourceKey":"trigger","destinationUnit":{"$ref":"74"},"destinationKey":"enter","guid":"c4ac284c-7951-44eb-9b1d-01a8975a4484","$type":"Unity.VisualScripting.ControlConnection"}],"$version":"A"}},"isStart":false,"position":{"x":76.0,"y":-56.0},"width":170.0,"guid":"3e598d50-531f-46ea-8519-72d51a8e58c0","$version":"A","$type":"Unity.VisualScripting.FlowState","$id":"54"},{"nest":{"source":"Embed","macro":null,"embed":{"variables":{"Kind":"Flow","collection":{"$content":[],"$version":"A"},"$version":"A"},"controlInputDefinitions":[],"controlOutputDefinitions":[],"valueInputDefinitions":[],"valueOutputDefinitions":[],"title":null,"summary":null,"pan":{"x":16.0,"y":-20.0},"zoom":1.0,"elements":[{"defaultValues":{},"position":{"x":100.0,"y":-50.0},"guid":"35beece9-0709-4d08-b5cc-65496045ffe1","$version":"A","$type":"Unity.VisualScripting.TriggerStateTransition","$id":"95"},{"argumentCount":0,"coroutine":false,"defaultValues":{"target":null,"name":{"$content":"GotoWaypointReachingState","$type":"System.String"}},"position":{"x":-262.0,"y":-54.0},"guid":"bf180e12-e458-4f1d-afcd-5ce57058840a","$version":"A","$type":"Unity.VisualScripting.CustomEvent","$id":"97"},{"sourceUnit":{"$ref":"97"},"sourceKey":"trigger","destinationUnit":{"$ref":"95"},"destinationKey":"trigger","guid":"dcd17a13-d227-4abe-b6ee-271498f73dc8","$type":"Unity.VisualScripting.ControlConnection"}],"$version":"A"}},"source":{"$ref":"22"},"destination":{"$ref":"54"},"guid":"d320e845-3277-4db4-96a6-e03a7d55a20e","$version":"A","$type":"Unity.VisualScripting.FlowStateTransition"},{"nest":{"source":"Embed","macro":null,"embed":{"variables":{"Kind":"Flow","collection":{"$content":[],"$version":"A"},"$version":"A"},"controlInputDefinitions":[],"controlOutputDefinitions":[],"valueInputDefinitions":[],"valueOutputDefinitions":[],"title":null,"summary":null,"pan":{"x":0.0,"y":0.0},"zoom":1.0,"elements":[{"defaultValues":{},"position":{"x":100.0,"y":-50.0},"guid":"d504f5bd-6020-4653-b99d-c76a81843e79","$version":"A","$type":"Unity.VisualScripting.TriggerStateTransition","$id":"110"},{"argumentCount":0,"coroutine":false,"defaultValues":{"target":null,"name":{"$content":"GotoIdleState","$type":"System.String"}},"position":{"x":-241.0,"y":-55.0},"guid":"d26b7bf1-6d4d-4d7b-aa10-3ebf5818cad3","$version":"A","$type":"Unity.VisualScripting.CustomEvent","$id":"112"},{"sourceUnit":{"$ref":"112"},"sourceKey":"trigger","destinationUnit":{"$ref":"110"},"destinationKey":"trigger","guid":"0c00b669-a522-4fb0-a5e4-1eb8e90daa42","$type":"Unity.VisualScripting.ControlConnection"}],"$version":"A"}},"source":{"$ref":"3"},"destination":{"$ref":"22"},"guid":"a3adc915-d8f9-406f-b092-6dc35e5cdc13","$version":"A","$type":"Unity.VisualScripting.FlowStateTransition"},{"nest":{"source":"Embed","macro":null,"embed":{"variables":{"Kind":"Flow","collection":{"$content":[],"$version":"A"},"$version":"A"},"controlInputDefinitions":[],"controlOutputDefinitions":[],"valueInputDefinitions":[],"valueOutputDefinitions":[],"title":null,"summary":null,"pan":{"x":0.0,"y":0.0},"zoom":1.0,"elements":[{"defaultValues":{},"position":{"x":100.0,"y":-50.0},"guid":"7a365fd1-dc8a-40aa-b589-9ce951523dc0","$version":"A","$type":"Unity.VisualScripting.TriggerStateTransition","$id":"125"},{"argumentCount":0,"coroutine":false,"defaultValues":{"target":null,"name":{"$content":"GotoIdleState","$type":"System.String"}},"position":{"x":-135.0,"y":-56.0},"guid":"4adcf768-42a6-49dd-8b10-7463a56433e3","$version":"A","$type":"Unity.VisualScripting.CustomEvent","$id":"127"},{"sourceUnit":{"$ref":"127"},"sourceKey":"trigger","destinationUnit":{"$ref":"125"},"destinationKey":"trigger","guid":"35db51b7-d93f-4833-85d3-d3a94efc2366","$type":"Unity.VisualScripting.ControlConnection"}],"$version":"A"}},"source":{"$ref":"54"},"destination":{"$ref":"22"},"guid":"37c16daa-7ea6-4da5-a37b-77a45f14a6ab","$version":"A","$type":"Unity.VisualScripting.FlowStateTransition"}],"$version":"A"}}'
    _objectReferences: []
