%YAML 1.1
%TAG !u! tag:unity3d.com,2011:
--- !u!114 &11400000
MonoBehaviour:
  m_ObjectHideFlags: 0
  m_CorrespondingSourceObject: {fileID: 0}
  m_PrefabInstance: {fileID: 0}
  m_PrefabAsset: {fileID: 0}
  m_GameObject: {fileID: 0}
  m_Enabled: 1
  m_EditorHideFlags: 0
  m_Script: {fileID: 11500000, guid: 6ea120a396da1874bb9b9560ad53b762, type: 3}
  m_Name: PigSlices-Loan
  m_EditorClassIdentifier: 
  prefeb: {fileID: 7490883267183306215, guid: c86ce14c3b2e63647839f01c76a50747, type: 3}
  sprite: {fileID: 21300000, guid: ce1ca9d948c245840b0d1ec6d3631e1f, type: 3}
  ObjectName: Sai
  spritecook: {fileID: 21300000, guid: 11b7eee54f11a8c49b0d0555621f1a44, type: 3}
  imageMenu: {fileID: 21300000, guid: 6ab431796c287444aa0fe70d81598130, type: 3}
