%YAML 1.1
%TAG !u! tag:unity3d.com,2011:
--- !u!114 &11400000
MonoBehaviour:
  m_ObjectHideFlags: 0
  m_CorrespondingSourceObject: {fileID: 0}
  m_PrefabInstance: {fileID: 0}
  m_PrefabAsset: {fileID: 0}
  m_GameObject: {fileID: 0}
  m_Enabled: 1
  m_EditorHideFlags: 0
  m_Script: {fileID: 11500000, guid: 6ea120a396da1874bb9b9560ad53b762, type: 3}
  m_Name: VegetableSlices-Loan
  m_EditorClassIdentifier: 
  prefeb: {fileID: 7297969571838865491, guid: b9f523c462e01944fb1b409e1384ad1f, type: 3}
  sprite: {fileID: 21300000, guid: 7a4a52a7113ae344e86f54b9a8f3f1e5, type: 3}
  ObjectName: Chili
  spritecook: {fileID: 21300000, guid: 11b7eee54f11a8c49b0d0555621f1a44, type: 3}
  imageMenu: {fileID: 21300000, guid: 6ab431796c287444aa0fe70d81598130, type: 3}
