%YAML 1.1
%TAG !u! tag:unity3d.com,2011:
--- !u!114 &11400000
MonoBehaviour:
  m_ObjectHideFlags: 0
  m_CorrespondingSourceObject: {fileID: 0}
  m_PrefabInstance: {fileID: 0}
  m_PrefabAsset: {fileID: 0}
  m_GameObject: {fileID: 0}
  m_Enabled: 1
  m_EditorHideFlags: 0
  m_Script: {fileID: 11500000, guid: 1eda5d0c874dc8a4a846d9395898a2ab, type: 3}
  m_Name: HangLayCurryFoodH
  m_EditorClassIdentifier: 
  kitchenObjectSOList:
  - {fileID: 11400000, guid: 48a2568e683be7f49814de947056fdc2, type: 2}
  - {fileID: 11400000, guid: 3f7ddb98dae71f444b58da700810a16d, type: 2}
  - {fileID: 11400000, guid: f0e892764bfdd3d4f880b85637ded320, type: 2}
  menuName: HangLayCurry
  menuScore: 35
  cookingTime: 45
