%YAML 1.1
%TAG !u! tag:unity3d.com,2011:
--- !u!1 &4040341869975371145
GameObject:
  m_ObjectHideFlags: 0
  m_CorrespondingSourceObject: {fileID: 0}
  m_PrefabInstance: {fileID: 0}
  m_PrefabAsset: {fileID: 0}
  serializedVersion: 6
  m_Component:
  - component: {fileID: 4040341869975371144}
  - component: {fileID: 14940933230594226}
  m_Layer: 0
  m_Name: VegetableLoan
  m_TagString: Untagged
  m_Icon: {fileID: 0}
  m_NavMeshLayer: 0
  m_StaticEditorFlags: 0
  m_IsActive: 1
--- !u!4 &4040341869975371144
Transform:
  m_ObjectHideFlags: 0
  m_CorrespondingSourceObject: {fileID: 0}
  m_PrefabInstance: {fileID: 0}
  m_PrefabAsset: {fileID: 0}
  m_GameObject: {fileID: 4040341869975371145}
  m_LocalRotation: {x: 0, y: 0, z: 0, w: 1}
  m_LocalPosition: {x: 0, y: 0, z: 0}
  m_LocalScale: {x: 1, y: 1, z: 1}
  m_ConstrainProportionsScale: 0
  m_Children:
  - {fileID: 1957311692447187434}
  m_Father: {fileID: 0}
  m_RootOrder: 0
  m_LocalEulerAnglesHint: {x: 0, y: 0, z: 0}
--- !u!114 &14940933230594226
MonoBehaviour:
  m_ObjectHideFlags: 0
  m_CorrespondingSourceObject: {fileID: 0}
  m_PrefabInstance: {fileID: 0}
  m_PrefabAsset: {fileID: 0}
  m_GameObject: {fileID: 4040341869975371145}
  m_Enabled: 1
  m_EditorHideFlags: 0
  m_Script: {fileID: 11500000, guid: b4aa1a531b3ecd94f82742ec27446bbe, type: 3}
  m_Name: 
  m_EditorClassIdentifier: 
  kitchenObjectSO: {fileID: 11400000, guid: 4738c55f379b2c74dba63ae779882bc2, type: 2}
--- !u!1001 &2570627106623866839
PrefabInstance:
  m_ObjectHideFlags: 0
  serializedVersion: 2
  m_Modification:
    m_TransformParent: {fileID: 4040341869975371144}
    m_Modifications:
    - target: {fileID: 1680337821596679378, guid: 2bdf71aae7f2ab440a2a6ab6cdbb61b7,
        type: 3}
      propertyPath: m_LocalPosition.x
      value: 0.28
      objectReference: {fileID: 0}
    - target: {fileID: 1680337821596679378, guid: 2bdf71aae7f2ab440a2a6ab6cdbb61b7,
        type: 3}
      propertyPath: m_LocalPosition.y
      value: 0
      objectReference: {fileID: 0}
    - target: {fileID: 1680337821596679378, guid: 2bdf71aae7f2ab440a2a6ab6cdbb61b7,
        type: 3}
      propertyPath: m_LocalPosition.z
      value: 0.06
      objectReference: {fileID: 0}
    - target: {fileID: 3201945673911767469, guid: 2bdf71aae7f2ab440a2a6ab6cdbb61b7,
        type: 3}
      propertyPath: m_LocalPosition.x
      value: 0
      objectReference: {fileID: 0}
    - target: {fileID: 3201945673911767469, guid: 2bdf71aae7f2ab440a2a6ab6cdbb61b7,
        type: 3}
      propertyPath: m_LocalPosition.y
      value: 0
      objectReference: {fileID: 0}
    - target: {fileID: 3201945673911767469, guid: 2bdf71aae7f2ab440a2a6ab6cdbb61b7,
        type: 3}
      propertyPath: m_LocalPosition.z
      value: 0
      objectReference: {fileID: 0}
    - target: {fileID: 4072792447334663741, guid: 2bdf71aae7f2ab440a2a6ab6cdbb61b7,
        type: 3}
      propertyPath: m_RootOrder
      value: 0
      objectReference: {fileID: 0}
    - target: {fileID: 4072792447334663741, guid: 2bdf71aae7f2ab440a2a6ab6cdbb61b7,
        type: 3}
      propertyPath: m_LocalPosition.x
      value: 0
      objectReference: {fileID: 0}
    - target: {fileID: 4072792447334663741, guid: 2bdf71aae7f2ab440a2a6ab6cdbb61b7,
        type: 3}
      propertyPath: m_LocalPosition.y
      value: 0
      objectReference: {fileID: 0}
    - target: {fileID: 4072792447334663741, guid: 2bdf71aae7f2ab440a2a6ab6cdbb61b7,
        type: 3}
      propertyPath: m_LocalPosition.z
      value: 0
      objectReference: {fileID: 0}
    - target: {fileID: 4072792447334663741, guid: 2bdf71aae7f2ab440a2a6ab6cdbb61b7,
        type: 3}
      propertyPath: m_LocalRotation.w
      value: 0.7071068
      objectReference: {fileID: 0}
    - target: {fileID: 4072792447334663741, guid: 2bdf71aae7f2ab440a2a6ab6cdbb61b7,
        type: 3}
      propertyPath: m_LocalRotation.x
      value: 0
      objectReference: {fileID: 0}
    - target: {fileID: 4072792447334663741, guid: 2bdf71aae7f2ab440a2a6ab6cdbb61b7,
        type: 3}
      propertyPath: m_LocalRotation.y
      value: -0.7071068
      objectReference: {fileID: 0}
    - target: {fileID: 4072792447334663741, guid: 2bdf71aae7f2ab440a2a6ab6cdbb61b7,
        type: 3}
      propertyPath: m_LocalRotation.z
      value: 0
      objectReference: {fileID: 0}
    - target: {fileID: 4072792447334663741, guid: 2bdf71aae7f2ab440a2a6ab6cdbb61b7,
        type: 3}
      propertyPath: m_LocalEulerAnglesHint.x
      value: 0
      objectReference: {fileID: 0}
    - target: {fileID: 4072792447334663741, guid: 2bdf71aae7f2ab440a2a6ab6cdbb61b7,
        type: 3}
      propertyPath: m_LocalEulerAnglesHint.y
      value: -90
      objectReference: {fileID: 0}
    - target: {fileID: 4072792447334663741, guid: 2bdf71aae7f2ab440a2a6ab6cdbb61b7,
        type: 3}
      propertyPath: m_LocalEulerAnglesHint.z
      value: 0
      objectReference: {fileID: 0}
    - target: {fileID: 5158286101602173926, guid: 2bdf71aae7f2ab440a2a6ab6cdbb61b7,
        type: 3}
      propertyPath: m_Name
      value: PepperChili
      objectReference: {fileID: 0}
    m_RemovedComponents: []
  m_SourcePrefab: {fileID: 100100000, guid: 2bdf71aae7f2ab440a2a6ab6cdbb61b7, type: 3}
--- !u!4 &1957311692447187434 stripped
Transform:
  m_CorrespondingSourceObject: {fileID: 4072792447334663741, guid: 2bdf71aae7f2ab440a2a6ab6cdbb61b7,
    type: 3}
  m_PrefabInstance: {fileID: 2570627106623866839}
  m_PrefabAsset: {fileID: 0}
