%YAML 1.1
%TAG !u! tag:unity3d.com,2011:
--- !u!114 &11400000
MonoBehaviour:
  m_ObjectHideFlags: 0
  m_CorrespondingSourceObject: {fileID: 0}
  m_PrefabInstance: {fileID: 0}
  m_PrefabAsset: {fileID: 0}
  m_GameObject: {fileID: 0}
  m_Enabled: 1
  m_EditorHideFlags: 0
  m_Script: {fileID: 11500000, guid: 6ea120a396da1874bb9b9560ad53b762, type: 3}
  m_Name: KanTok
  m_EditorClassIdentifier: 
  prefeb: {fileID: 6180904276750089748, guid: facc2af3b8d56174583b9273bb94f12f, type: 3}
  sprite: {fileID: 0}
  ObjectName: 
