%YAML 1.1
%TAG !u! tag:unity3d.com,2011:
--- !u!114 &11400000
MonoBehaviour:
  m_ObjectHideFlags: 0
  m_CorrespondingSourceObject: {fileID: 0}
  m_PrefabInstance: {fileID: 0}
  m_PrefabAsset: {fileID: 0}
  m_GameObject: {fileID: 0}
  m_Enabled: 1
  m_EditorHideFlags: 0
  m_Script: {fileID: 11500000, guid: 9338d70024439194d90ba3731991fe80, type: 3}
  m_Name: Pig - pigSlices - Hunglay
  m_EditorClassIdentifier: 
  input: {fileID: 11400000, guid: cfd09ef6fd69acc44be952fdf83252f6, type: 2}
  output: {fileID: 11400000, guid: c20bbb3a5dade0d468b9c5b21af8bcb3, type: 2}
  cuttingProgressMax: 4
