%YAML 1.1
%TAG !u! tag:unity3d.com,2011:
--- !u!114 &11400000
MonoBehaviour:
  m_ObjectHideFlags: 0
  m_CorrespondingSourceObject: {fileID: 0}
  m_PrefabInstance: {fileID: 0}
  m_PrefabAsset: {fileID: 0}
  m_GameObject: {fileID: 0}
  m_Enabled: 1
  m_EditorHideFlags: 0
  m_Script: {fileID: 11500000, guid: 9338d70024439194d90ba3731991fe80, type: 3}
  m_Name: Vegetable - VegLoanSlices
  m_EditorClassIdentifier: 
  input: {fileID: 11400000, guid: 4738c55f379b2c74dba63ae779882bc2, type: 2}
  output: {fileID: 11400000, guid: ea1b7c431c2f3934ba9d4c9c7e394bb1, type: 2}
  cuttingProgressMax: 3
